{"name":"prueba","id":"prueba;prueba","scenarioId":"usercrud:prueba","methodName":"prueba","testSteps":[{"number":1,"description":"Given obtener valor","duration":1226,"startTime":"2025-01-05T00:30:25.632944-05:00[America/Bogota]","result":"SUCCESS","precondition":false,"level":0,"children":[{"number":2,"description":"daniel call the service at execute GET","duration":1141,"startTime":"2025-01-05T00:30:25.715394-05:00[America/Bogota]","result":"SUCCESS","precondition":false,"level":1,"children":[{"number":3,"description":"Daniel get request","duration":1136,"startTime":"2025-01-05T00:30:25.717984-05:00[America/Bogota]","result":"SUCCESS","precondition":false,"level":2,"children":[{"number":4,"description":"daniel executes a GET on the resource /api/users?page\u003d2","duration":1120,"startTime":"2025-01-05T00:30:25.727628-05:00[America/Bogota]","result":"SUCCESS","precondition":false,"level":3,"children":[{"number":5,"description":"GET https://reqres.in/api/users?page\u003d2","duration":0,"startTime":"2025-01-05T00:30:26.847672-05:00[America/Bogota]","result":"SUCCESS","restQuery":{"method":"GET","path":"https://reqres.in/api/users?page\u003d2","content":"","contentType":"application/json","requestHeaders":"Accept\u003dJSON\n\t\t\t\tContent-Type\u003dapplication/json","requestCookies":"","responseHeaders":"Date: Sun, 05 Jan 2025 05:30:26 GMT\nContent-Type: application/json; charset\u003dutf-8\nTransfer-Encoding: chunked\nConnection: keep-alive\nReport-To: {\"group\":\"heroku-nel\",\"max_age\":3600,\"endpoints\":[{\"url\":\"https://nel.heroku.com/reports?ts\u003d1735954057\u0026sid\u003dc4c9725f-1ab0-44d8-820f-430df2718e11\u0026s\u003dQ%2B8hXr2X03Gp%2BdgcIWzi9em7jOoUa7%2B5lxSX3Nx2djg%3D\"}]}\nReporting-Endpoints: heroku-nel\u003dhttps://nel.heroku.com/reports?ts\u003d1735954057\u0026sid\u003dc4c9725f-1ab0-44d8-820f-430df2718e11\u0026s\u003dQ%2B8hXr2X03Gp%2BdgcIWzi9em7jOoUa7%2B5lxSX3Nx2djg%3D\nNel: {\"report_to\":\"heroku-nel\",\"max_age\":3600,\"success_fraction\":0.005,\"failure_fraction\":0.05,\"response_headers\":[\"Via\"]}\nX-Powered-By: Express\nAccess-Control-Allow-Origin: *\nEtag: W/\"440-ZjsmMKR8P3usr2uJZbOCGCxC3Uw\"\nVia: 1.1 vegur\nCache-Control: max-age\u003d14400\nCF-Cache-Status: HIT\nAge: 3052\nVary: Accept-Encoding\nServer: cloudflare\nCF-RAY: 8fd1138e3dee21fd-MIA\nContent-Encoding: gzip\nserver-timing: cfL4;desc\u003d\"?proto\u003dTCP\u0026rtt\u003d69947\u0026min_rtt\u003d69467\u0026rtt_var\u003d27011\u0026sent\u003d5\u0026recv\u003d6\u0026lost\u003d0\u0026retrans\u003d0\u0026sent_bytes\u003d3107\u0026recv_bytes\u003d797\u0026delivery_rate\u003d57289\u0026cwnd\u003d252\u0026unsent_bytes\u003d0\u0026cid\u003d996ab29ddff7f77c\u0026ts\u003d108\u0026x\u003d0\"","responseCookies":"","responseBody":"{\n    \"page\": 2,\n    \"per_page\": 6,\n    \"total\": 12,\n    \"total_pages\": 2,\n    \"data\": [\n        {\n            \"id\": 7,\n            \"email\": \"michael.lawson@reqres.in\",\n            \"first_name\": \"Michael\",\n            \"last_name\": \"Lawson\",\n            \"avatar\": \"https://reqres.in/img/faces/7-image.jpg\"\n        },\n        {\n            \"id\": 8,\n            \"email\": \"lindsay.ferguson@reqres.in\",\n            \"first_name\": \"Lindsay\",\n            \"last_name\": \"Ferguson\",\n            \"avatar\": \"https://reqres.in/img/faces/8-image.jpg\"\n        },\n        {\n            \"id\": 9,\n            \"email\": \"tobias.funke@reqres.in\",\n            \"first_name\": \"Tobias\",\n            \"last_name\": \"Funke\",\n            \"avatar\": \"https://reqres.in/img/faces/9-image.jpg\"\n        },\n        {\n            \"id\": 10,\n            \"email\": \"byron.fields@reqres.in\",\n            \"first_name\": \"Byron\",\n            \"last_name\": \"Fields\",\n            \"avatar\": \"https://reqres.in/img/faces/10-image.jpg\"\n        },\n        {\n            \"id\": 11,\n            \"email\": \"george.edwards@reqres.in\",\n            \"first_name\": \"George\",\n            \"last_name\": \"Edwards\",\n            \"avatar\": \"https://reqres.in/img/faces/11-image.jpg\"\n        },\n        {\n            \"id\": 12,\n            \"email\": \"rachel.howell@reqres.in\",\n            \"first_name\": \"Rachel\",\n            \"last_name\": \"Howell\",\n            \"avatar\": \"https://reqres.in/img/faces/12-image.jpg\"\n        }\n    ],\n    \"support\": {\n        \"url\": \"https://contentcaddy.io?utm_source\u003dreqres\u0026utm_medium\u003djson\u0026utm_campaign\u003dreferral\",\n        \"text\": \"Tired of writing endless social media content? Let Content Caddy generate it for you.\"\n    }\n}","statusCode":200},"precondition":false,"level":4}]}]}]}]}],"userStory":{"id":"usercrud","storyName":"prueba","displayName":"prueba","path":"usercrud","pathElements":[{"name":"usercrud","description":""}],"type":"feature"},"title":"Prueba","description":"","startTime":"2025-01-05T00:30:25.597327-05:00[America/Bogota]","endTime":"2025-01-05T00:30:26.860171-05:00[America/Bogota]","duration":1250,"projectKey":"","isManualTestingUpToDate":false,"manual":false,"testSource":"Cucumber","actors":[{"name":"daniel","can":["browse the web","call an API at https://reqres.in"]}],"order":0,"result":"SUCCESS"}